{"items":[{"title":"ヴォカライズ","displayTitle":"ヴォカライズ","author":"小菊路 よう","publisher":"講談社","genre":"青年漫画","genreId":"001001003047","imageUrl":"https://thumbnail.image.rakuten.co.jp/@0_mall/book/cabinet/7699/9784065427699.gif?_ex=800x800","hasRealCover":true,"isbn":"9784065427699","itemUrl":"https://books.rakuten.co.jp/rb/18523062/","price":792,"firstReleaseDate":"2026年03月09日","label":"シリウスKC","seriesName":"シリウスKC","volumeCount":1,"coverCandidates":[{"imageUrl":"https://thumbnail.image.rakuten.co.jp/@0_mall/book/cabinet/7699/9784065427699.gif?_ex=800x800","isbn":"9784065427699","hasRealCover":true}]},{"title":"波の間にまに","displayTitle":"波の間にまに","author":"西炯子","publisher":"小学館","genre":"青年漫画","genreId":"001001003009","imageUrl":"https://thumbnail.image.rakuten.co.jp/@0_mall/book/cabinet/8024/9784098638024.gif?_ex=800x800","hasRealCover":true,"isbn":"9784098638024","itemUrl":"https://books.rakuten.co.jp/rb/18524595/","price":770,"firstReleaseDate":"2026年03月30日頃","label":"ビッグ　コミックス","seriesName":"ビッグ　コミックス","volumeCount":1,"coverCandidates":[{"imageUrl":"https://thumbnail.image.rakuten.co.jp/@0_mall/book/cabinet/8024/9784098638024.gif?_ex=800x800","isbn":"9784098638024","hasRealCover":true}]},{"title":"忘却のサチコ","displayTitle":"忘却のサチコ","author":"阿部潤","publisher":"小学館","genre":"青年漫画","genreId":"001001003009","imageUrl":"https://thumbnail.image.rakuten.co.jp/@0_mall/book/cabinet/8727/9784098638727.gif?_ex=800x800","hasRealCover":true,"isbn":"9784098638727","itemUrl":"https://books.rakuten.co.jp/rb/18524608/","price":770,"firstReleaseDate":"2026年03月30日頃","label":"ビッグ　コミックス","seriesName":"ビッグ　コミックス","volumeCount":1,"coverCandidates":[{"imageUrl":"https://thumbnail.image.rakuten.co.jp/@0_mall/book/cabinet/8727/9784098638727.gif?_ex=800x800","isbn":"9784098638727","hasRealCover":true}]},{"title":"宗像教授世界篇","displayTitle":"宗像教授世界篇","author":"星野 之宣","publisher":"小学館","genre":"青年漫画","genreId":"001001003009","imageUrl":"https://thumbnail.image.rakuten.co.jp/@0_mall/book/cabinet/8796/9784098638796.gif?_ex=800x800","hasRealCover":true,"isbn":"9784098638796","itemUrl":"https://books.rakuten.co.jp/rb/18524612/","price":1595,"firstReleaseDate":"2026年03月30日","label":"ビッグ コミックス","seriesName":"ビッグ コミックス","volumeCount":1,"coverCandidates":[{"imageUrl":"https://thumbnail.image.rakuten.co.jp/@0_mall/book/cabinet/8796/9784098638796.gif?_ex=800x800","isbn":"9784098638796","hasRealCover":true}]},{"title":"宗像教授セレクション 星と星座の物語","displayTitle":"宗像教授セレクション 星と星座の物語","author":"星野 之宣","publisher":"小学館","genre":"青年漫画","genreId":"001001003009","imageUrl":"https://thumbnail.image.rakuten.co.jp/@0_mall/book/cabinet/8802/9784098638802.gif?_ex=800x800","hasRealCover":true,"isbn":"9784098638802","itemUrl":"https://books.rakuten.co.jp/rb/18524613/","price":1595,"firstReleaseDate":"2026年03月30日","label":"ビッグ コミックス","seriesName":"ビッグ コミックス","volumeCount":1,"coverCandidates":[{"imageUrl":"https://thumbnail.image.rakuten.co.jp/@0_mall/book/cabinet/8802/9784098638802.gif?_ex=800x800","isbn":"9784098638802","hasRealCover":true}]},{"title":"しすたれじすた","displayTitle":"しすたれじすた","author":"岡田 麿里/オジロ マコト","publisher":"小学館","genre":"青年漫画","genreId":"001001003009","imageUrl":"https://thumbnail.image.rakuten.co.jp/@0_mall/book/cabinet/8093/9784098638093.gif?_ex=800x800","hasRealCover":true,"isbn":"9784098638093","itemUrl":"https://books.rakuten.co.jp/rb/18524601/","price":770,"firstReleaseDate":"2026年03月30日","label":"ビッグ コミックス","seriesName":"ビッグ コミックス","volumeCount":1,"coverCandidates":[{"imageUrl":"https://thumbnail.image.rakuten.co.jp/@0_mall/book/cabinet/8093/9784098638093.gif?_ex=800x800","isbn":"9784098638093","hasRealCover":true}]},{"title":"灰と銀の羽根","displayTitle":"灰と銀の羽根","author":"文ノ梛","publisher":"講談社","genre":"青年漫画","genreId":"001001003003","imageUrl":"https://thumbnail.image.rakuten.co.jp/@0_mall/book/cabinet/9365/9784065429365.gif?_ex=800x800","hasRealCover":true,"isbn":"9784065429365","itemUrl":"https://books.rakuten.co.jp/rb/18538254/","price":869,"firstReleaseDate":"2026年03月18日","label":"ヤンマガKCスペシャル","seriesName":"ヤンマガKCスペシャル","volumeCount":1,"coverCandidates":[{"imageUrl":"https://thumbnail.image.rakuten.co.jp/@0_mall/book/cabinet/9365/9784065429365.gif?_ex=800x800","isbn":"9784065429365","hasRealCover":true}]},{"title":"あぶさん","displayTitle":"あぶさん","author":"水島 新司","publisher":"小学館","genre":"青年漫画","genreId":"001001003009","imageUrl":"https://thumbnail.image.rakuten.co.jp/@0_mall/book/cabinet/1340/9784091801340_1_5.jpg?_ex=800x800","hasRealCover":true,"isbn":"9784091801340","itemUrl":"https://books.rakuten.co.jp/rb/376866/","price":533,"firstReleaseDate":"1979年01月30日","label":"ビッグ コミックス","seriesName":"ビッグ コミックス","volumeCount":9,"coverCandidates":[{"imageUrl":"https://thumbnail.image.rakuten.co.jp/@0_mall/book/cabinet/7273/9784091817273_1_5.jpg?_ex=800x800","isbn":"9784091817273","hasRealCover":true},{"imageUrl":"https://thumbnail.image.rakuten.co.jp/@0_mall/book/cabinet/7266/9784091817266_1_5.jpg?_ex=800x800","isbn":"9784091817266","hasRealCover":true},{"imageUrl":"https://thumbnail.image.rakuten.co.jp/@0_mall/book/cabinet/3573/9784091803573_1_5.jpg?_ex=800x800","isbn":"9784091803573","hasRealCover":true},{"imageUrl":"https://thumbnail.image.rakuten.co.jp/@0_mall/book/cabinet/1357/9784091801357_1_5.jpg?_ex=800x800","isbn":"9784091801357","hasRealCover":true},{"imageUrl":"https://thumbnail.image.rakuten.co.jp/@0_mall/book/cabinet/1340/9784091801340_1_5.jpg?_ex=800x800","isbn":"9784091801340","hasRealCover":true},{"imageUrl":"https://thumbnail.image.rakuten.co.jp/@0_mall/book/cabinet/1333/9784091801333_1_5.jpg?_ex=800x800","isbn":"9784091801333","hasRealCover":true},{"imageUrl":"https://thumbnail.image.rakuten.co.jp/@0_mall/book/cabinet/0206/9784091800206_1_5.jpg?_ex=800x800","isbn":"9784091800206","hasRealCover":true}]},{"title":"夕焼けの詩","displayTitle":"夕焼けの詩","author":"西岸良平","publisher":"小学館","genre":"青年漫画","genreId":"001001003009","imageUrl":"https://thumbnail.image.rakuten.co.jp/@0_mall/book/cabinet/0688/9784091800688_1_5.jpg?_ex=800x800","hasRealCover":true,"isbn":"9784091800688","itemUrl":"https://books.rakuten.co.jp/rb/802413/","price":555,"firstReleaseDate":"1979年08月29日","label":"ビッグ コミックス","seriesName":"ビッグ コミックス","volumeCount":4,"coverCandidates":[{"imageUrl":"https://thumbnail.image.rakuten.co.jp/@0_mall/book/cabinet/0695/9784091800695_1_4.jpg?_ex=800x800","isbn":"9784091800695","hasRealCover":true},{"imageUrl":"https://thumbnail.image.rakuten.co.jp/@0_mall/book/cabinet/0688/9784091800688_1_5.jpg?_ex=800x800","isbn":"9784091800688","hasRealCover":true}]},{"title":"風の大地","displayTitle":"風の大地","author":"坂田 信弘/かざま 鋭二","publisher":"小学館","genre":"青年漫画","genreId":"001001003009","imageUrl":"https://thumbnail.image.rakuten.co.jp/@0_mall/book/cabinet/6830/9784091836830_1_5.jpg?_ex=800x800","hasRealCover":true,"isbn":"9784091836830","itemUrl":"https://books.rakuten.co.jp/rb/806943/","price":715,"firstReleaseDate":"1996年05月30日","label":"ビッグ コミックス","seriesName":"ビッグ コミックス","volumeCount":1,"coverCandidates":[{"imageUrl":"https://thumbnail.image.rakuten.co.jp/@0_mall/book/cabinet/6830/9784091836830_1_5.jpg?_ex=800x800","isbn":"9784091836830","hasRealCover":true}]},{"title":"浮浪雲","displayTitle":"浮浪雲","author":"ジョージ 秋山","publisher":"小学館","genre":"青年漫画","genreId":"001001003009","imageUrl":"https://thumbnail.image.rakuten.co.jp/@0_mall/book/cabinet/5300/9784091805300_1_5.jpg?_ex=800x800","hasRealCover":true,"isbn":"9784091805300","itemUrl":"https://books.rakuten.co.jp/rb/957695/","price":555,"firstReleaseDate":"1986年01月30日","label":"ビッグ コミックス","seriesName":"ビッグ コミックス","volumeCount":1,"coverCandidates":[{"imageUrl":"https://thumbnail.image.rakuten.co.jp/@0_mall/book/cabinet/5300/9784091805300_1_5.jpg?_ex=800x800","isbn":"9784091805300","hasRealCover":true}]},{"title":"バガボンド","displayTitle":"バガボンド","author":"井上雄彦/吉川英治","publisher":"講談社","genre":"青年漫画","genreId":"001001003004","imageUrl":"https://thumbnail.image.rakuten.co.jp/@0_mall/book/cabinet/7790/9784063287790.jpg?_ex=800x800","hasRealCover":true,"isbn":"9784063287790","itemUrl":"https://books.rakuten.co.jp/rb/1394261/","price":957,"firstReleaseDate":"2001年11月22日","label":"モーニング　KC","seriesName":"モーニング　KC","volumeCount":18,"coverCandidates":[{"imageUrl":"https://thumbnail.image.rakuten.co.jp/@0_mall/book/cabinet/8711/9784063288711.jpg?_ex=800x800","isbn":"9784063288711","hasRealCover":true},{"imageUrl":"https://thumbnail.image.rakuten.co.jp/@0_mall/book/cabinet/8506/9784063288506.jpg?_ex=800x800","isbn":"9784063288506","hasRealCover":true},{"imageUrl":"https://thumbnail.image.rakuten.co.jp/@0_mall/book/cabinet/8230/9784063288230.jpg?_ex=800x800","isbn":"9784063288230","hasRealCover":true},{"imageUrl":"https://thumbnail.image.rakuten.co.jp/@0_mall/book/cabinet/8049/9784063288049.jpg?_ex=800x800","isbn":"9784063288049","hasRealCover":true},{"imageUrl":"https://thumbnail.image.rakuten.co.jp/@0_mall/book/cabinet/7790/9784063287790.jpg?_ex=800x800","isbn":"9784063287790","hasRealCover":true},{"imageUrl":"https://thumbnail.image.rakuten.co.jp/@0_mall/book/cabinet/7639/9784063287639.jpg?_ex=800x800","isbn":"9784063287639","hasRealCover":true},{"imageUrl":"https://thumbnail.image.rakuten.co.jp/@0_mall/book/cabinet/7554/9784063287554.jpg?_ex=800x800","isbn":"9784063287554","hasRealCover":true},{"imageUrl":"https://thumbnail.image.rakuten.co.jp/@0_mall/book/cabinet/7363/9784063287363.jpg?_ex=800x800","isbn":"9784063287363","hasRealCover":true},{"imageUrl":"https://thumbnail.image.rakuten.co.jp/@0_mall/book/cabinet/7202/9784063287202.jpg?_ex=800x800","isbn":"9784063287202","hasRealCover":true},{"imageUrl":"https://thumbnail.image.rakuten.co.jp/@0_mall/book/cabinet/7028/9784063287028.jpg?_ex=800x800","isbn":"9784063287028","hasRealCover":true}]},{"title":"MONSTER","displayTitle":"MONSTER","author":"浦沢 直樹","publisher":"小学館","genre":"青年漫画","genreId":"001001003009","imageUrl":"https://thumbnail.image.rakuten.co.jp/@0_mall/book/cabinet/2724/9784091852724.jpg?_ex=800x800","hasRealCover":true,"isbn":"9784091852724","itemUrl":"https://books.rakuten.co.jp/rb/1073740/","price":555,"firstReleaseDate":"1999年06月30日","label":"ビッグ コミックス","seriesName":"ビッグ コミックス","volumeCount":2,"coverCandidates":[{"imageUrl":"https://thumbnail.image.rakuten.co.jp/@0_mall/book/cabinet/2724/9784091852724.jpg?_ex=800x800","isbn":"9784091852724","hasRealCover":true}]},{"title":"イエスタデイをうたって","displayTitle":"イエスタデイをうたって","author":"冬目景","publisher":"集英社","genre":"青年漫画","genreId":"001001003005","imageUrl":"https://thumbnail.image.rakuten.co.jp/@0_mall/book/cabinet/0887/08876013.jpg?_ex=800x800","hasRealCover":true,"isbn":"9784088760131","itemUrl":"https://books.rakuten.co.jp/rb/1149559/","price":555,"firstReleaseDate":"2000年04月19日頃","label":"ヤングジャンプコミックスBJ","seriesName":"ヤングジャンプコミックスBJ","volumeCount":2,"coverCandidates":[{"imageUrl":"https://thumbnail.image.rakuten.co.jp/@0_mall/book/cabinet/0887/08876013.jpg?_ex=800x800","isbn":"9784088760131","hasRealCover":true}]},{"title":"REAL","displayTitle":"REAL","author":"井上 雄彦","publisher":"集英社","genre":"青年漫画","genreId":"001001003005","imageUrl":"https://thumbnail.image.rakuten.co.jp/@0_mall/book/cabinet/1435/9784088761435.jpg?_ex=800x800","hasRealCover":true,"isbn":"9784088761435","itemUrl":"https://books.rakuten.co.jp/rb/1325387/","price":880,"firstReleaseDate":"2001年03月19日","label":"ヤングジャンプコミックス","seriesName":"ヤングジャンプコミックス","volumeCount":3,"coverCandidates":[{"imageUrl":"https://thumbnail.image.rakuten.co.jp/@0_mall/book/cabinet/1435/9784088761435.jpg?_ex=800x800","isbn":"9784088761435","hasRealCover":true}]},{"title":"WILDERNESS（ワイルダネス）","displayTitle":"WILDERNESS（ワイルダネス）","author":"伊藤 明弘","publisher":"小学館","genre":"青年漫画","genreId":"001001003039","imageUrl":"https://thumbnail.image.rakuten.co.jp/@0_mall/book/cabinet/0710/9784091570710_1_5.jpg?_ex=800x800","hasRealCover":true,"isbn":"9784091570710","itemUrl":"https://books.rakuten.co.jp/rb/1375543/","price":715,"firstReleaseDate":"2001年09月19日","label":"サンデーGXコミックス","seriesName":"サンデーGXコミックス","volumeCount":2,"coverCandidates":[{"imageUrl":"https://thumbnail.image.rakuten.co.jp/@0_mall/book/cabinet/0710/9784091570710_1_5.jpg?_ex=800x800","isbn":"9784091570710","hasRealCover":true}]},{"title":"ギョ","displayTitle":"ギョ","author":"伊藤潤二","publisher":"小学館","genre":"青年漫画","genreId":"001001003009","imageUrl":"https://thumbnail.image.rakuten.co.jp/@0_mall/book/cabinet/0811/9784091860811_1_4.jpg?_ex=800x800","hasRealCover":true,"isbn":"9784091860811","itemUrl":"https://books.rakuten.co.jp/rb/1421460/","price":770,"firstReleaseDate":"2002年02月28日","label":"ビッグコミックス","seriesName":"ビッグコミックス","volumeCount":2,"coverCandidates":[{"imageUrl":"https://thumbnail.image.rakuten.co.jp/@0_mall/book/cabinet/0811/9784091860811_1_4.jpg?_ex=800x800","isbn":"9784091860811","hasRealCover":true}]},{"title":"もうひとつのMONSTER","displayTitle":"もうひとつのMONSTER","author":"ヴェルナー・ヴェーバー/浦沢 直樹/長崎 尚志","publisher":"小学館","genre":"青年漫画","genreId":"001001003009","imageUrl":"https://thumbnail.image.rakuten.co.jp/@0_mall/book/cabinet/2793/9784091852793_1_5.jpg?_ex=800x800","hasRealCover":true,"isbn":"9784091852793","itemUrl":"https://books.rakuten.co.jp/rb/1456876/","price":1980,"firstReleaseDate":"2002年06月21日","label":"ビッグ コミックス","seriesName":"ビッグ コミックス","volumeCount":1,"coverCandidates":[{"imageUrl":"https://thumbnail.image.rakuten.co.jp/@0_mall/book/cabinet/2793/9784091852793_1_5.jpg?_ex=800x800","isbn":"9784091852793","hasRealCover":true}]},{"title":"高橋留美子劇場","displayTitle":"高橋留美子劇場","author":"高橋留美子","publisher":"小学館","genre":"青年漫画","genreId":"001001003009","imageUrl":"https://thumbnail.image.rakuten.co.jp/@0_mall/book/cabinet/0513/9784091870513_1_4.jpg?_ex=800x800","hasRealCover":true,"isbn":"9784091870513","itemUrl":"https://books.rakuten.co.jp/rb/1572227/","price":565,"firstReleaseDate":"2003年06月30日","label":"ビッグコミックスゴールド","seriesName":"ビッグコミックスゴールド","volumeCount":2,"coverCandidates":[{"imageUrl":"https://thumbnail.image.rakuten.co.jp/@0_mall/book/cabinet/0513/9784091870513_1_4.jpg?_ex=800x800","isbn":"9784091870513","hasRealCover":true}]},{"title":"ドラゴン桜","displayTitle":"ドラゴン桜","author":"三田 紀房","publisher":"講談社","genre":"青年漫画","genreId":"001001003004","imageUrl":"https://thumbnail.image.rakuten.co.jp/@0_mall/book/cabinet/9091/9784063289091.jpg?_ex=800x800","hasRealCover":true,"isbn":"9784063289091","itemUrl":"https://books.rakuten.co.jp/rb/1607259/","price":935,"firstReleaseDate":"2003年10月22日","label":"モーニング　KC","seriesName":"モーニング　KC","volumeCount":1,"coverCandidates":[{"imageUrl":"https://thumbnail.image.rakuten.co.jp/@0_mall/book/cabinet/9091/9784063289091.jpg?_ex=800x800","isbn":"9784063289091","hasRealCover":true}]}],"page":22,"totalPages":22,"totalCount":1280,"itemsPerPage":60}